<svg xmlns="http://www.w3.org/2000/svg" width="14" height="18" viewBox="0 0 14 18">
  <metadata><?xpacket begin="﻿" id="W5M0MpCehiHzreSzNTczkc9d"?>
<x:xmpmeta xmlns:x="adobe:ns:meta/" x:xmptk="Adobe XMP Core 5.6-c138 79.159824, 2016/09/14-01:09:01        ">
   <rdf:RDF xmlns:rdf="http://www.w3.org/1999/02/22-rdf-syntax-ns#">
      <rdf:Description rdf:about=""/>
   </rdf:RDF>
</x:xmpmeta>
                                                                                                    
                                                                                                    
                                                                                                    
                                                                                                    
                                                                                                    
                                                                                                    
                                                                                                    
                                                                                                    
                                                                                                    
                                                                                                    
                                                                                                    
                                                                                                    
                                                                                                    
                                                                                                    
                                                                                                    
                                                                                                    
                                                                                                    
                                                                                                    
                                                                                                    
                                                                                                    
                           
<?xpacket end="w"?></metadata>
<defs>
    <style>
      .cls-1 {
        fill: #6a737b;
        fill-rule: evenodd;
      }
    </style>
  </defs>
  <path id="Фигура_516_копия" data-name="Фигура 516 копия" class="cls-1" d="M125.04,426l-0.28-.287c-0.277-.284-6.764-7-6.764-10.783a7,7,0,0,1,14.007,0c0,3.713-6.413,10.493-6.686,10.779Zm-0.077-17.232a6.186,6.186,0,0,0-6.2,6.162c0,3.061,5.015,8.615,6.267,9.954,1.238-1.352,6.2-6.955,6.2-9.954A6.223,6.223,0,0,0,124.963,408.767Zm0,8.531a2.59,2.59,0,1,1,2.6-2.59A2.6,2.6,0,0,1,124.963,417.3Zm0-4.413a1.823,1.823,0,1,0,1.833,1.823A1.83,1.83,0,0,0,124.963,412.885Z" transform="translate(-118 -408)"/>
</svg>
