<svg xmlns="http://www.w3.org/2000/svg" width="49" height="48" viewBox="0 0 49 48">
  <metadata><?xpacket begin="﻿" id="W5M0MpCehiHzreSzNTczkc9d"?>
<x:xmpmeta xmlns:x="adobe:ns:meta/" x:xmptk="Adobe XMP Core 5.6-c138 79.159824, 2016/09/14-01:09:01        ">
   <rdf:RDF xmlns:rdf="http://www.w3.org/1999/02/22-rdf-syntax-ns#">
      <rdf:Description rdf:about=""/>
   </rdf:RDF>
</x:xmpmeta>
                                                                                                    
                                                                                                    
                                                                                                    
                                                                                                    
                                                                                                    
                                                                                                    
                                                                                                    
                                                                                                    
                                                                                                    
                                                                                                    
                                                                                                    
                                                                                                    
                                                                                                    
                                                                                                    
                                                                                                    
                                                                                                    
                                                                                                    
                                                                                                    
                                                                                                    
                                                                                                    
                           
<?xpacket end="w"?></metadata>
<defs>
    <style>
      .cls-1 {
        fill: #6c727a;
        fill-rule: evenodd;
      }
    </style>
  </defs>
  <g id="Монтажная_область_1_копия_3" data-name="Монтажная область 1 копия 3">
    <path id="Фигура_4_копия" data-name="Фигура 4 копия" class="cls-1" d="M528.75,6.008a7.132,7.132,0,0,0-3.51.835,3.231,3.231,0,0,0-1.68,2.027c-0.856.369-1.8,0.778-2.55,1.1s-1.265.529-1.47,0.626a2.32,2.32,0,0,0-1.2,1.163,1.789,1.789,0,0,0,.12,1.551,2.393,2.393,0,0,0,2.67.984,5.68,5.68,0,0,0,2.16-1.163,23.933,23.933,0,0,1,1.47,9.094,7.627,7.627,0,0,1-1.68,4.561c-1.008,1.114-2.513,1.849-5.04,1.849-1.861,0-3.416-.031-3.96-0.447a1.461,1.461,0,0,1-.51-1.253,11.685,11.685,0,0,1,.6-3.756,0.941,0.941,0,0,0,0-.477,3.62,3.62,0,0,0-.54-1.193c0.029-.024.061-0.032,0.09-0.06a1.458,1.458,0,0,0,.48-1.043,3.622,3.622,0,0,0-.66-2.057,2.468,2.468,0,0,0-2.01-1.163H497.67a2.468,2.468,0,0,0-2.01,1.163,3.622,3.622,0,0,0-.66,2.057,1.493,1.493,0,0,0,.45,1.043,2.54,2.54,0,0,0,.78.477c0.145,0.065.317,0.123,0.48,0.179A14.047,14.047,0,0,0,495,28.637a4.185,4.185,0,0,0,2.43,3.429,11.051,11.051,0,0,0,1.05.537,6.58,6.58,0,0,0-.6,2.713,6.72,6.72,0,0,0,13.44,0c0-.08,0-0.16,0-0.239,1.982,0.137,3.979.239,5.91,0.239a41.054,41.054,0,0,0,7.65-.656,3.27,3.27,0,0,0,.81,1.819,2.718,2.718,0,0,0,1.95.745,2.446,2.446,0,0,0,1.17-.328,6.714,6.714,0,0,0,13.23-1.58,6.647,6.647,0,0,0-.69-2.922,2.791,2.791,0,0,0,.45-0.15,1.847,1.847,0,0,0,.93-0.775,2.4,2.4,0,0,0,.27-1.193c0-1.364-.934-2.646-2.49-3.667a11.668,11.668,0,0,0-5.61-1.73,7.018,7.018,0,0,0-.69-1.491V23.36c-1.318-2.14-4.2-5.808-5.85-10.614,0.129,0.006.258,0.03,0.39,0.03a4.775,4.775,0,0,0,1.71-.239,2.3,2.3,0,0,0,1.14-.924,3.845,3.845,0,0,0,.36-2.236,3.755,3.755,0,0,0-.36-2.207,2.311,2.311,0,0,0-1.14-.924A4.771,4.771,0,0,0,528.75,6.008Zm0,1.908a3.213,3.213,0,0,1,1.02.119,0.234,0.234,0,0,1,.18.119,4.582,4.582,0,0,1,.09,1.223,4.89,4.89,0,0,1-.09,1.252,0.235,0.235,0,0,1-.18.119,3.212,3.212,0,0,1-1.02.119,5.344,5.344,0,0,1-2.55-.6,1.229,1.229,0,0,1-.78-0.894,1.232,1.232,0,0,1,.78-0.895A5.367,5.367,0,0,1,528.75,7.916Zm-6.42,3.548c-0.052.042-.035,0.046-0.09,0.089a5.645,5.645,0,0,1-1.53.894,0.425,0.425,0,0,1-.42-0.06,0.19,0.19,0,0,1,.09-0.06c0.032-.015.662-0.3,1.41-0.626C521.951,11.633,522.154,11.54,522.33,11.464Zm2.61,0.268c0.1,0.068.195,0.149,0.3,0.209a6.009,6.009,0,0,0,.96.417c1.7,5.7,5.154,9.985,6.39,11.986,0,0.008,0,.021,0,0.03a5.338,5.338,0,0,1,.27.506,8.865,8.865,0,0,0-8.07,7.871,38.983,38.983,0,0,1-7.56.656c-2.222,0-4.553-.113-6.81-0.3a0.967,0.967,0,0,0-.3-0.03,52.959,52.959,0,0,1-6.93-.984,17.566,17.566,0,0,1-4.77-1.7c-1.092-.64-1.5-1.205-1.5-1.759a12.1,12.1,0,0,1,1.74-6.082,39.9,39.9,0,0,0,5.85.358,39.84,39.84,0,0,0,6.3-.418c0.322-.055.615-0.112,0.9-0.179a1.333,1.333,0,0,1,.54.716,13.016,13.016,0,0,0-.6,4.025,3.569,3.569,0,0,0,1.26,2.653c1.468,1.12,3.365.835,5.13,0.835a8.391,8.391,0,0,0,6.48-2.474,9.382,9.382,0,0,0,2.16-5.665A26.686,26.686,0,0,0,524.94,11.732ZM497.67,19.1h13.86a0.813,0.813,0,0,1,.42.358,1.86,1.86,0,0,1,.24.686c-0.021.01-.006,0.019-0.03,0.03a7.714,7.714,0,0,1-1.65.447,38.823,38.823,0,0,1-6,.388,36.869,36.869,0,0,1-5.88-.388,7.929,7.929,0,0,1-1.62-.417,1.89,1.89,0,0,1,.24-0.745A0.813,0.813,0,0,1,497.67,19.1Zm36.12,7.662a10.245,10.245,0,0,1,5.64,1.431,3.382,3.382,0,0,1,1.65,2.087,0.415,0.415,0,0,1-.03.209,7.7,7.7,0,0,1-1.26.03,15.691,15.691,0,0,0-6.78,1.1,11.448,11.448,0,0,0-4.47,2.892c-0.342.383-.562,0.661-0.66,0.746s-0.02.06-.24,0.06a0.693,0.693,0,0,1-.57-0.179,2.5,2.5,0,0,1-.39-1.729A6.95,6.95,0,0,1,533.79,26.759Zm4.74,5.665c0.215,0,.4,0,0.6,0a4.716,4.716,0,0,1,.99,2.892,4.8,4.8,0,0,1-9.6,0c0-.03,0-0.06,0-0.09a8,8,0,0,1,1.08-.775,3.8,3.8,0,0,0-.12.865,3.84,3.84,0,0,0,7.68,0,3.782,3.782,0,0,0-1.35-2.862C538.051,32.439,538.306,32.426,538.53,32.423Zm-38.28.835c0.305,0.1.606,0.208,0.93,0.3a3.741,3.741,0,0,0-.42,1.759,3.84,3.84,0,0,0,7.68,0,3.428,3.428,0,0,0-.06-0.448c0.33,0.036.655,0.058,0.99,0.09,0.008,0.12.03,0.234,0.03,0.358A4.8,4.8,0,1,1,500.25,33.258Zm35.07,0.149a1.888,1.888,0,1,1-1.83,1.311c0.375,0.442.764,0.855,1.14,1.252a0.964,0.964,0,0,0,1.347.171,0.951,0.951,0,0,0,.172-1.339,0.976,0.976,0,0,0-.139-0.144c-0.356-.377-0.719-0.8-1.08-1.222A1.994,1.994,0,0,1,535.32,33.408ZM503.1,34c0.387,0.083.766,0.163,1.17,0.239-0.122.139-.236,0.286-0.36,0.417A0.95,0.95,0,0,0,503.8,36a0.964,0.964,0,0,0,1.492-.033c0.384-.407.766-0.858,1.14-1.312a0.944,0.944,0,0,0,.06.268,1.924,1.924,0,1,1-3.51-.655A0.953,0.953,0,0,0,503.1,34Z" transform="translate(-494)"/>
  </g>
</svg>
